<font>
  <info face="FreckleFace" size="62" bold="0" italic="0" charset="" unicode="" stretchH="100" smooth="1" aa="1" padding="2,2,2,2" spacing="0,0" outline="0"/>
  <common lineHeight="76" base="73" scaleW="512" scaleH="512" pages="1" packed="0"/>
  <pages>
    <page id="0" file="FreckleFace.png"/>
  </pages>
  <chars count="95">
    <char id="32" x="2" y="2" width="0" height="0" xoffset="0" yoffset="73" xadvance="16" page="0" chnl="15"/>
    <char id="33" x="4" y="2" width="19" height="51" xoffset="1" yoffset="30" xadvance="19" page="0" chnl="15"/>
    <char id="34" x="25" y="2" width="20" height="18" xoffset="1" yoffset="29" xadvance="20" page="0" chnl="15"/>
    <char id="35" x="47" y="2" width="33" height="46" xoffset="1" yoffset="29" xadvance="33" page="0" chnl="15"/>
    <char id="36" x="82" y="2" width="25" height="55" xoffset="1" yoffset="27" xadvance="25" page="0" chnl="15"/>
    <char id="37" x="25" y="50" width="39" height="48" xoffset="1" yoffset="30" xadvance="40" page="0" chnl="15"/>
    <char id="38" x="2" y="4" width="0" height="0" xoffset="-32" yoffset="0" xadvance="39" page="0" chnl="15"/>
    <char id="39" x="66" y="50" width="12" height="18" xoffset="1" yoffset="29" xadvance="11" page="0" chnl="15"/>
    <char id="40" x="109" y="2" width="25" height="63" xoffset="1" yoffset="25" xadvance="22" page="0" chnl="15"/>
    <char id="41" x="80" y="59" width="22" height="61" xoffset="-1" yoffset="25" xadvance="20" page="0" chnl="15"/>
    <char id="42" x="2" y="100" width="34" height="34" xoffset="1" yoffset="27" xadvance="34" page="0" chnl="15"/>
    <char id="43" x="38" y="100" width="30" height="34" xoffset="1" yoffset="37" xadvance="30" page="0" chnl="15"/>
    <char id="44" x="25" y="22" width="18" height="22" xoffset="1" yoffset="64" xadvance="17" page="0" chnl="15"/>
    <char id="45" x="136" y="2" width="32" height="16" xoffset="1" yoffset="47" xadvance="33" page="0" chnl="15"/>
    <char id="46" x="2" y="55" width="15" height="15" xoffset="1" yoffset="63" xadvance="16" page="0" chnl="15"/>
    <char id="47" x="170" y="2" width="28" height="46" xoffset="1" yoffset="31" xadvance="27" page="0" chnl="15"/>
    <char id="48" x="200" y="2" width="35" height="47" xoffset="1" yoffset="32" xadvance="35" page="0" chnl="15"/>
    <char id="49" x="136" y="20" width="31" height="45" xoffset="1" yoffset="32" xadvance="29" page="0" chnl="15"/>
    <char id="50" x="237" y="2" width="34" height="47" xoffset="1" yoffset="32" xadvance="34" page="0" chnl="15"/>
    <char id="51" x="273" y="2" width="32" height="46" xoffset="1" yoffset="31" xadvance="32" page="0" chnl="15"/>
    <char id="52" x="307" y="2" width="33" height="46" xoffset="1" yoffset="33" xadvance="32" page="0" chnl="15"/>
    <char id="53" x="342" y="2" width="32" height="45" xoffset="1" yoffset="33" xadvance="32" page="0" chnl="15"/>
    <char id="54" x="376" y="2" width="34" height="44" xoffset="2" yoffset="33" xadvance="35" page="0" chnl="15"/>
    <char id="55" x="412" y="2" width="32" height="46" xoffset="0" yoffset="32" xadvance="29" page="0" chnl="15"/>
    <char id="56" x="446" y="2" width="35" height="44" xoffset="2" yoffset="34" xadvance="36" page="0" chnl="15"/>
    <char id="57" x="446" y="48" width="38" height="44" xoffset="1" yoffset="32" xadvance="38" page="0" chnl="15"/>
    <char id="58" x="483" y="2" width="15" height="35" xoffset="2" yoffset="43" xadvance="17" page="0" chnl="15"/>
    <char id="59" x="486" y="39" width="18" height="43" xoffset="2" yoffset="43" xadvance="18" page="0" chnl="15"/>
    <char id="60" x="169" y="50" width="26" height="37" xoffset="1" yoffset="36" xadvance="27" page="0" chnl="15"/>
    <char id="61" x="376" y="48" width="33" height="29" xoffset="2" yoffset="40" xadvance="35" page="0" chnl="15"/>
    <char id="62" x="342" y="49" width="26" height="37" xoffset="1" yoffset="36" xadvance="27" page="0" chnl="15"/>
    <char id="63" x="104" y="67" width="37" height="50" xoffset="1" yoffset="32" xadvance="37" page="0" chnl="15"/>
    <char id="64" x="273" y="50" width="46" height="46" xoffset="2" yoffset="36" xadvance="47" page="0" chnl="15"/>
    <char id="65" x="370" y="79" width="38" height="52" xoffset="0" yoffset="28" xadvance="38" page="0" chnl="15"/>
    <char id="66" x="321" y="88" width="41" height="55" xoffset="0" yoffset="26" xadvance="41" page="0" chnl="15"/>
    <char id="67" x="197" y="51" width="37" height="49" xoffset="1" yoffset="30" xadvance="37" page="0" chnl="15"/>
    <char id="68" x="143" y="89" width="44" height="49" xoffset="0" yoffset="30" xadvance="42" page="0" chnl="15"/>
    <char id="69" x="70" y="122" width="39" height="48" xoffset="0" yoffset="32" xadvance="37" page="0" chnl="15"/>
    <char id="70" x="2" y="136" width="39" height="49" xoffset="0" yoffset="31" xadvance="37" page="0" chnl="15"/>
    <char id="71" x="236" y="98" width="42" height="53" xoffset="1" yoffset="29" xadvance="40" page="0" chnl="15"/>
    <char id="72" x="280" y="98" width="38" height="48" xoffset="2" yoffset="30" xadvance="40" page="0" chnl="15"/>
    <char id="73" x="236" y="51" width="18" height="45" xoffset="2" yoffset="33" xadvance="19" page="0" chnl="15"/>
    <char id="74" x="189" y="102" width="40" height="48" xoffset="0" yoffset="32" xadvance="39" page="0" chnl="15"/>
    <char id="75" x="111" y="140" width="40" height="50" xoffset="2" yoffset="30" xadvance="40" page="0" chnl="15"/>
    <char id="76" x="153" y="140" width="34" height="51" xoffset="0" yoffset="29" xadvance="31" page="0" chnl="15"/>
    <char id="77" x="43" y="172" width="47" height="47" xoffset="2" yoffset="30" xadvance="47" page="0" chnl="15"/>
    <char id="78" x="2" y="187" width="36" height="51" xoffset="2" yoffset="27" xadvance="38" page="0" chnl="15"/>
    <char id="79" x="410" y="79" width="34" height="43" xoffset="2" yoffset="36" xadvance="35" page="0" chnl="15"/>
    <char id="80" x="189" y="152" width="36" height="52" xoffset="0" yoffset="31" xadvance="33" page="0" chnl="15"/>
    <char id="81" x="92" y="192" width="35" height="59" xoffset="1" yoffset="31" xadvance="35" page="0" chnl="15"/>
    <char id="82" x="40" y="221" width="37" height="46" xoffset="2" yoffset="31" xadvance="37" page="0" chnl="15"/>
    <char id="83" x="129" y="193" width="38" height="51" xoffset="0" yoffset="28" xadvance="37" page="0" chnl="15"/>
    <char id="84" x="446" y="94" width="38" height="47" xoffset="0" yoffset="32" xadvance="36" page="0" chnl="15"/>
    <char id="85" x="410" y="124" width="32" height="47" xoffset="1" yoffset="32" xadvance="32" page="0" chnl="15"/>
    <char id="86" x="364" y="133" width="38" height="48" xoffset="0" yoffset="30" xadvance="35" page="0" chnl="15"/>
    <char id="87" x="444" y="143" width="46" height="50" xoffset="1" yoffset="29" xadvance="46" page="0" chnl="15"/>
    <char id="88" x="404" y="173" width="37" height="44" xoffset="0" yoffset="35" xadvance="36" page="0" chnl="15"/>
    <char id="89" x="320" y="145" width="42" height="50" xoffset="-1" yoffset="31" xadvance="39" page="0" chnl="15"/>
    <char id="90" x="443" y="195" width="39" height="45" xoffset="1" yoffset="34" xadvance="37" page="0" chnl="15"/>
    <char id="91" x="484" y="195" width="20" height="58" xoffset="2" yoffset="28" xadvance="21" page="0" chnl="15"/>
    <char id="92" x="486" y="84" width="22" height="44" xoffset="1" yoffset="33" xadvance="22" page="0" chnl="15"/>
    <char id="93" x="2" y="240" width="21" height="63" xoffset="0" yoffset="25" xadvance="21" page="0" chnl="15"/>
    <char id="94" x="364" y="183" width="32" height="31" xoffset="1" yoffset="35" xadvance="33" page="0" chnl="15"/>
    <char id="95" x="411" y="50" width="32" height="16" xoffset="3" yoffset="78" xadvance="33" page="0" chnl="15"/>
    <char id="96" x="92" y="172" width="17" height="15" xoffset="0" yoffset="24" xadvance="15" page="0" chnl="15"/>
    <char id="97" x="280" y="148" width="34" height="41" xoffset="1" yoffset="39" xadvance="34" page="0" chnl="15"/>
    <char id="98" x="227" y="153" width="41" height="51" xoffset="-1" yoffset="27" xadvance="38" page="0" chnl="15"/>
    <char id="99" x="270" y="191" width="34" height="38" xoffset="1" yoffset="41" xadvance="33" page="0" chnl="15"/>
    <char id="100" x="306" y="197" width="37" height="51" xoffset="1" yoffset="28" xadvance="37" page="0" chnl="15"/>
    <char id="101" x="345" y="216" width="33" height="37" xoffset="1" yoffset="41" xadvance="32" page="0" chnl="15"/>
    <char id="102" x="380" y="219" width="31" height="51" xoffset="0" yoffset="27" xadvance="28" page="0" chnl="15"/>
    <char id="103" x="413" y="242" width="33" height="48" xoffset="1" yoffset="40" xadvance="34" page="0" chnl="15"/>
    <char id="104" x="448" y="242" width="34" height="45" xoffset="1" yoffset="33" xadvance="33" page="0" chnl="15"/>
    <char id="105" x="492" y="130" width="16" height="47" xoffset="1" yoffset="30" xadvance="16" page="0" chnl="15"/>
    <char id="106" x="484" y="255" width="26" height="61" xoffset="-12" yoffset="31" xadvance="12" page="0" chnl="15"/>
    <char id="107" x="448" y="289" width="33" height="44" xoffset="2" yoffset="33" xadvance="33" page="0" chnl="15"/>
    <char id="108" x="483" y="318" width="21" height="46" xoffset="1" yoffset="31" xadvance="19" page="0" chnl="15"/>
    <char id="109" x="169" y="206" width="45" height="34" xoffset="2" yoffset="44" xadvance="45" page="0" chnl="15"/>
    <char id="110" x="216" y="206" width="32" height="31" xoffset="2" yoffset="46" xadvance="33" page="0" chnl="15"/>
    <char id="111" x="250" y="231" width="31" height="33" xoffset="1" yoffset="43" xadvance="30" page="0" chnl="15"/>
    <char id="112" x="283" y="250" width="34" height="51" xoffset="1" yoffset="41" xadvance="33" page="0" chnl="15"/>
    <char id="113" x="319" y="255" width="42" height="52" xoffset="1" yoffset="43" xadvance="33" page="0" chnl="15"/>
    <char id="114" x="216" y="239" width="32" height="36" xoffset="1" yoffset="41" xadvance="32" page="0" chnl="15"/>
    <char id="115" x="169" y="242" width="32" height="38" xoffset="0" yoffset="41" xadvance="30" page="0" chnl="15"/>
    <char id="116" x="250" y="266" width="31" height="49" xoffset="-1" yoffset="30" xadvance="27" page="0" chnl="15"/>
    <char id="117" x="129" y="246" width="36" height="35" xoffset="2" yoffset="39" xadvance="35" page="0" chnl="15"/>
    <char id="118" x="283" y="303" width="32" height="37" xoffset="0" yoffset="39" xadvance="30" page="0" chnl="15"/>
    <char id="119" x="203" y="277" width="43" height="38" xoffset="0" yoffset="39" xadvance="42" page="0" chnl="15"/>
    <char id="120" x="167" y="282" width="34" height="37" xoffset="1" yoffset="40" xadvance="31" page="0" chnl="15"/>
    <char id="121" x="363" y="272" width="36" height="46" xoffset="-1" yoffset="41" xadvance="33" page="0" chnl="15"/>
    <char id="122" x="317" y="309" width="34" height="37" xoffset="0" yoffset="43" xadvance="33" page="0" chnl="15"/>
    <char id="123" x="401" y="292" width="26" height="61" xoffset="0" yoffset="28" xadvance="23" page="0" chnl="15"/>
    <char id="124" x="429" y="292" width="15" height="61" xoffset="2" yoffset="23" xadvance="16" page="0" chnl="15"/>
    <char id="125" x="446" y="335" width="26" height="60" xoffset="0" yoffset="29" xadvance="23" page="0" chnl="15"/>
    <char id="126" x="353" y="320" width="38" height="29" xoffset="2" yoffset="39" xadvance="40" page="0" chnl="15"/>
    <char id="32" x="0" y="0" width="0" height="0" xoffset="2" yoffset="39" xadvance="16" page="0" chnl="15"/>
  </chars>
  <kernings count="280">
    <kerning first="38" second="106" amount="10"/>
    <kerning first="38" second="39" amount="0"/>
    <kerning first="38" second="34" amount="0"/>
    <kerning first="40" second="48" amount="-1"/>
    <kerning first="40" second="51" amount="0"/>
    <kerning first="40" second="52" amount="-1"/>
    <kerning first="40" second="54" amount="0"/>
    <kerning first="40" second="56" amount="0"/>
    <kerning first="40" second="57" amount="0"/>
    <kerning first="40" second="67" amount="-1"/>
    <kerning first="40" second="74" amount="0"/>
    <kerning first="40" second="83" amount="0"/>
    <kerning first="40" second="84" amount="0"/>
    <kerning first="40" second="85" amount="0"/>
    <kerning first="40" second="99" amount="-1"/>
    <kerning first="40" second="100" amount="0"/>
    <kerning first="40" second="101" amount="0"/>
    <kerning first="40" second="106" amount="16"/>
    <kerning first="40" second="111" amount="-1"/>
    <kerning first="40" second="113" amount="-1"/>
    <kerning first="40" second="116" amount="0"/>
    <kerning first="40" second="117" amount="-1"/>
    <kerning first="40" second="118" amount="-1"/>
    <kerning first="40" second="119" amount="-1"/>
    <kerning first="40" second="121" amount="5"/>
    <kerning first="42" second="80" amount="4"/>
    <kerning first="42" second="86" amount="4"/>
    <kerning first="42" second="89" amount="0"/>
    <kerning first="42" second="106" amount="5"/>
    <kerning first="42" second="122" amount="0"/>
    <kerning first="44" second="52" amount="-1"/>
    <kerning first="44" second="55" amount="-1"/>
    <kerning first="44" second="86" amount="0"/>
    <kerning first="44" second="106" amount="12"/>
    <kerning first="44" second="118" amount="0"/>
    <kerning first="44" second="39" amount="-3"/>
    <kerning first="44" second="34" amount="-3"/>
    <kerning first="46" second="52" amount="-1"/>
    <kerning first="46" second="55" amount="-1"/>
    <kerning first="46" second="86" amount="0"/>
    <kerning first="46" second="118" amount="0"/>
    <kerning first="46" second="39" amount="-3"/>
    <kerning first="46" second="34" amount="-3"/>
    <kerning first="47" second="47" amount="-1"/>
    <kerning first="47" second="74" amount="0"/>
    <kerning first="47" second="99" amount="0"/>
    <kerning first="47" second="103" amount="0"/>
    <kerning first="47" second="115" amount="0"/>
    <kerning first="47" second="122" amount="0"/>
    <kerning first="48" second="41" amount="0"/>
    <kerning first="48" second="93" amount="0"/>
    <kerning first="48" second="125" amount="0"/>
    <kerning first="49" second="52" amount="0"/>
    <kerning first="49" second="55" amount="0"/>
    <kerning first="49" second="92" amount="0"/>
    <kerning first="52" second="41" amount="0"/>
    <kerning first="55" second="44" amount="0"/>
    <kerning first="55" second="46" amount="0"/>
    <kerning first="55" second="47" amount="0"/>
    <kerning first="57" second="93" amount="-1"/>
    <kerning first="57" second="125" amount="0"/>
    <kerning first="68" second="41" amount="0"/>
    <kerning first="68" second="93" amount="0"/>
    <kerning first="68" second="125" amount="0"/>
    <kerning first="70" second="38" amount="-1"/>
    <kerning first="70" second="41" amount="4"/>
    <kerning first="70" second="44" amount="-2"/>
    <kerning first="70" second="46" amount="-2"/>
    <kerning first="70" second="47" amount="-2"/>
    <kerning first="70" second="56" amount="0"/>
    <kerning first="70" second="65" amount="-1"/>
    <kerning first="70" second="71" amount="0"/>
    <kerning first="70" second="74" amount="-1"/>
    <kerning first="70" second="81" amount="0"/>
    <kerning first="70" second="89" amount="-1"/>
    <kerning first="70" second="97" amount="-1"/>
    <kerning first="70" second="98" amount="4"/>
    <kerning first="70" second="99" amount="-1"/>
    <kerning first="70" second="100" amount="-1"/>
    <kerning first="70" second="101" amount="-1"/>
    <kerning first="70" second="103" amount="-2"/>
    <kerning first="70" second="106" amount="4"/>
    <kerning first="70" second="109" amount="-1"/>
    <kerning first="70" second="110" amount="-1"/>
    <kerning first="70" second="111" amount="-1"/>
    <kerning first="70" second="112" amount="0"/>
    <kerning first="70" second="113" amount="-1"/>
    <kerning first="70" second="114" amount="0"/>
    <kerning first="70" second="115" amount="-1"/>
    <kerning first="70" second="117" amount="0"/>
    <kerning first="70" second="121" amount="0"/>
    <kerning first="70" second="122" amount="-2"/>
    <kerning first="75" second="106" amount="4"/>
    <kerning first="76" second="41" amount="0"/>
    <kerning first="76" second="42" amount="-3"/>
    <kerning first="76" second="45" amount="-2"/>
    <kerning first="76" second="52" amount="-2"/>
    <kerning first="76" second="55" amount="-2"/>
    <kerning first="76" second="63" amount="-2"/>
    <kerning first="76" second="84" amount="-1"/>
    <kerning first="76" second="86" amount="-2"/>
    <kerning first="76" second="92" amount="-1"/>
    <kerning first="76" second="113" amount="0"/>
    <kerning first="76" second="116" amount="0"/>
    <kerning first="76" second="118" amount="-2"/>
    <kerning first="76" second="119" amount="0"/>
    <kerning first="76" second="39" amount="-2"/>
    <kerning first="76" second="34" amount="-2"/>
    <kerning first="79" second="41" amount="-1"/>
    <kerning first="79" second="55" amount="0"/>
    <kerning first="79" second="86" amount="0"/>
    <kerning first="79" second="125" amount="0"/>
    <kerning first="79" second="39" amount="0"/>
    <kerning first="79" second="34" amount="0"/>
    <kerning first="80" second="93" amount="-1"/>
    <kerning first="80" second="116" amount="4"/>
    <kerning first="80" second="125" amount="0"/>
    <kerning first="81" second="106" amount="11"/>
    <kerning first="84" second="32" amount="0"/>
    <kerning first="84" second="38" amount="-1"/>
    <kerning first="84" second="42" amount="4"/>
    <kerning first="84" second="44" amount="-3"/>
    <kerning first="84" second="45" amount="0"/>
    <kerning first="84" second="46" amount="-3"/>
    <kerning first="84" second="47" amount="-3"/>
    <kerning first="84" second="56" amount="-1"/>
    <kerning first="84" second="65" amount="-1"/>
    <kerning first="84" second="66" amount="0"/>
    <kerning first="84" second="71" amount="0"/>
    <kerning first="84" second="74" amount="-4"/>
    <kerning first="84" second="81" amount="0"/>
    <kerning first="84" second="83" amount="0"/>
    <kerning first="84" second="89" amount="-2"/>
    <kerning first="84" second="93" amount="-2"/>
    <kerning first="84" second="97" amount="0"/>
    <kerning first="84" second="98" amount="4"/>
    <kerning first="84" second="99" amount="-2"/>
    <kerning first="84" second="100" amount="-1"/>
    <kerning first="84" second="101" amount="0"/>
    <kerning first="84" second="102" amount="0"/>
    <kerning first="84" second="103" amount="-3"/>
    <kerning first="84" second="106" amount="4"/>
    <kerning first="84" second="109" amount="-1"/>
    <kerning first="84" second="110" amount="-3"/>
    <kerning first="84" second="111" amount="-1"/>
    <kerning first="84" second="113" amount="-1"/>
    <kerning first="84" second="115" amount="-1"/>
    <kerning first="84" second="122" amount="-1"/>
    <kerning first="86" second="44" amount="0"/>
    <kerning first="86" second="46" amount="0"/>
    <kerning first="86" second="99" amount="0"/>
    <kerning first="86" second="106" amount="4"/>
    <kerning first="86" second="111" amount="0"/>
    <kerning first="86" second="115" amount="0"/>
    <kerning first="86" second="122" amount="0"/>
    <kerning first="89" second="38" amount="0"/>
    <kerning first="89" second="41" amount="4"/>
    <kerning first="89" second="44" amount="-1"/>
    <kerning first="89" second="46" amount="-1"/>
    <kerning first="89" second="47" amount="0"/>
    <kerning first="89" second="65" amount="0"/>
    <kerning first="89" second="74" amount="0"/>
    <kerning first="89" second="89" amount="0"/>
    <kerning first="89" second="99" amount="0"/>
    <kerning first="89" second="103" amount="0"/>
    <kerning first="89" second="106" amount="4"/>
    <kerning first="89" second="109" amount="0"/>
    <kerning first="89" second="110" amount="0"/>
    <kerning first="89" second="111" amount="0"/>
    <kerning first="89" second="115" amount="0"/>
    <kerning first="89" second="122" amount="0"/>
    <kerning first="91" second="106" amount="15"/>
    <kerning first="91" second="113" amount="0"/>
    <kerning first="91" second="118" amount="0"/>
    <kerning first="91" second="119" amount="0"/>
    <kerning first="91" second="121" amount="4"/>
    <kerning first="97" second="41" amount="0"/>
    <kerning first="98" second="41" amount="0"/>
    <kerning first="98" second="93" amount="-1"/>
    <kerning first="98" second="121" amount="0"/>
    <kerning first="98" second="125" amount="0"/>
    <kerning first="99" second="41" amount="0"/>
    <kerning first="101" second="41" amount="0"/>
    <kerning first="102" second="41" amount="4"/>
    <kerning first="102" second="42" amount="4"/>
    <kerning first="102" second="44" amount="-1"/>
    <kerning first="102" second="46" amount="-1"/>
    <kerning first="102" second="47" amount="0"/>
    <kerning first="102" second="106" amount="4"/>
    <kerning first="103" second="106" amount="11"/>
    <kerning first="104" second="41" amount="-1"/>
    <kerning first="104" second="92" amount="0"/>
    <kerning first="104" second="39" amount="0"/>
    <kerning first="104" second="34" amount="0"/>
    <kerning first="106" second="106" amount="13"/>
    <kerning first="107" second="41" amount="0"/>
    <kerning first="109" second="41" amount="-1"/>
    <kerning first="109" second="125" amount="0"/>
    <kerning first="109" second="39" amount="0"/>
    <kerning first="110" second="41" amount="-1"/>
    <kerning first="110" second="92" amount="0"/>
    <kerning first="110" second="125" amount="0"/>
    <kerning first="110" second="39" amount="0"/>
    <kerning first="110" second="34" amount="0"/>
    <kerning first="111" second="41" amount="-1"/>
    <kerning first="111" second="92" amount="0"/>
    <kerning first="111" second="93" amount="0"/>
    <kerning first="111" second="125" amount="0"/>
    <kerning first="112" second="41" amount="-1"/>
    <kerning first="112" second="93" amount="-1"/>
    <kerning first="112" second="125" amount="-1"/>
    <kerning first="113" second="41" amount="8"/>
    <kerning first="113" second="44" amount="5"/>
    <kerning first="113" second="93" amount="10"/>
    <kerning first="113" second="106" amount="22"/>
    <kerning first="113" second="124" amount="7"/>
    <kerning first="113" second="125" amount="11"/>
    <kerning first="113" second="59" amount="4"/>
    <kerning first="114" second="41" amount="0"/>
    <kerning first="114" second="44" amount="-1"/>
    <kerning first="114" second="46" amount="-1"/>
    <kerning first="114" second="93" amount="-2"/>
    <kerning first="114" second="125" amount="-1"/>
    <kerning first="115" second="41" amount="0"/>
    <kerning first="116" second="38" amount="0"/>
    <kerning first="116" second="44" amount="-1"/>
    <kerning first="116" second="46" amount="-1"/>
    <kerning first="116" second="47" amount="0"/>
    <kerning first="116" second="93" amount="-1"/>
    <kerning first="116" second="125" amount="0"/>
    <kerning first="117" second="41" amount="-1"/>
    <kerning first="117" second="125" amount="0"/>
    <kerning first="118" second="93" amount="-1"/>
    <kerning first="118" second="125" amount="0"/>
    <kerning first="119" second="93" amount="-1"/>
    <kerning first="119" second="125" amount="0"/>
    <kerning first="120" second="41" amount="0"/>
    <kerning first="120" second="119" amount="0"/>
    <kerning first="121" second="93" amount="-1"/>
    <kerning first="121" second="106" amount="4"/>
    <kerning first="121" second="125" amount="0"/>
    <kerning first="122" second="41" amount="0"/>
    <kerning first="123" second="56" amount="0"/>
    <kerning first="123" second="65" amount="0"/>
    <kerning first="123" second="70" amount="4"/>
    <kerning first="123" second="74" amount="0"/>
    <kerning first="123" second="80" amount="4"/>
    <kerning first="123" second="81" amount="0"/>
    <kerning first="123" second="86" amount="4"/>
    <kerning first="123" second="89" amount="0"/>
    <kerning first="123" second="97" amount="0"/>
    <kerning first="123" second="98" amount="5"/>
    <kerning first="123" second="99" amount="-1"/>
    <kerning first="123" second="100" amount="0"/>
    <kerning first="123" second="101" amount="0"/>
    <kerning first="123" second="106" amount="12"/>
    <kerning first="123" second="109" amount="0"/>
    <kerning first="123" second="110" amount="-1"/>
    <kerning first="123" second="111" amount="-1"/>
    <kerning first="123" second="113" amount="0"/>
    <kerning first="123" second="114" amount="0"/>
    <kerning first="123" second="115" amount="0"/>
    <kerning first="123" second="120" amount="0"/>
    <kerning first="123" second="122" amount="-1"/>
    <kerning first="124" second="106" amount="14"/>
    <kerning first="59" second="106" amount="12"/>
    <kerning first="39" second="38" amount="0"/>
    <kerning first="39" second="44" amount="-3"/>
    <kerning first="39" second="46" amount="-3"/>
    <kerning first="39" second="47" amount="-1"/>
    <kerning first="39" second="65" amount="0"/>
    <kerning first="39" second="74" amount="-2"/>
    <kerning first="39" second="103" amount="0"/>
    <kerning first="34" second="38" amount="0"/>
    <kerning first="34" second="44" amount="-3"/>
    <kerning first="34" second="46" amount="-3"/>
    <kerning first="34" second="47" amount="-1"/>
    <kerning first="34" second="65" amount="0"/>
    <kerning first="34" second="74" amount="-2"/>
    <kerning first="34" second="103" amount="0"/>
  </kernings>
</font>