{
  "player1": {
    "bunniesLeft": 20,
    "timesWon": 0,
    "decisions": {
      "playerId": 1,
      "bunnyId": 1,
      "bunnyPlacements": [],
      "trapPlacements": [
        {
          "columnIndex": 0,
          "rowIndex": 0
        },
        {
          "columnIndex": 0,
          "rowIndex": 1
        },
        {
          "columnIndex": 0,
          "rowIndex": 2
        },
        {
          "columnIndex": 0,
          "rowIndex": 3
        },
        {
          "columnIndex": 1,
          "rowIndex": 3
        }
      ]
    }
  },
  "player2": {
    "bunniesLeft": 22,
    "timesWon": 0,
    "decisions": {}
  },
  "player3": {
    "bunniesLeft": 21,
    "timesWon": 0,
    "decisions": {}
  },
  "player4": {
    "bunniesLeft": 19,
    "timesWon": 0,
    "decisions": {}
  },
  "currentLevel": 1,
  "currentState": 0,
  "seenTutorial": false,
  "roomGamesPlayed": "NaN"
}