{"frames": [

{
	"filename": "button/1.png",
	"frame": {"x":1,"y":1,"w":248,"h":66},
	"rotated": false,
	"trimmed": false,
	"spriteSourceSize": {"x":0,"y":0,"w":248,"h":66},
	"sourceSize": {"w":248,"h":66},
	"pivot": {"x":0.5,"y":0.5}
},
{
	"filename": "button/2.png",
	"frame": {"x":251,"y":1,"w":248,"h":66},
	"rotated": false,
	"trimmed": false,
	"spriteSourceSize": {"x":0,"y":0,"w":248,"h":66},
	"sourceSize": {"w":248,"h":66},
	"pivot": {"x":0.5,"y":0.5}
},
{
	"filename": "button/3.png",
	"frame": {"x":501,"y":1,"w":248,"h":66},
	"rotated": false,
	"trimmed": false,
	"spriteSourceSize": {"x":0,"y":0,"w":248,"h":66},
	"sourceSize": {"w":248,"h":66},
	"pivot": {"x":0.5,"y":0.5}
},
{
	"filename": "button/4.png",
	"frame": {"x":751,"y":1,"w":248,"h":66},
	"rotated": false,
	"trimmed": false,
	"spriteSourceSize": {"x":0,"y":0,"w":248,"h":66},
	"sourceSize": {"w":248,"h":66},
	"pivot": {"x":0.5,"y":0.5}
},
{
	"filename": "button/ready/1.png",
	"frame": {"x":1,"y":69,"w":248,"h":66},
	"rotated": false,
	"trimmed": false,
	"spriteSourceSize": {"x":0,"y":0,"w":248,"h":66},
	"sourceSize": {"w":248,"h":66},
	"pivot": {"x":0.5,"y":0.5}
},
{
	"filename": "button/ready/2.png",
	"frame": {"x":251,"y":69,"w":248,"h":66},
	"rotated": false,
	"trimmed": false,
	"spriteSourceSize": {"x":0,"y":0,"w":248,"h":66},
	"sourceSize": {"w":248,"h":66},
	"pivot": {"x":0.5,"y":0.5}
},
{
	"filename": "button/ready/3.png",
	"frame": {"x":501,"y":69,"w":248,"h":66},
	"rotated": false,
	"trimmed": false,
	"spriteSourceSize": {"x":0,"y":0,"w":248,"h":66},
	"sourceSize": {"w":248,"h":66},
	"pivot": {"x":0.5,"y":0.5}
},
{
	"filename": "button/ready/4.png",
	"frame": {"x":751,"y":69,"w":248,"h":66},
	"rotated": false,
	"trimmed": false,
	"spriteSourceSize": {"x":0,"y":0,"w":248,"h":66},
	"sourceSize": {"w":248,"h":66},
	"pivot": {"x":0.5,"y":0.5}
},
{
	"filename": "lobby-status-bar/bar.png",
	"frame": {"x":1,"y":137,"w":1021,"h":99},
	"rotated": false,
	"trimmed": true,
	"spriteSourceSize": {"x":0,"y":1,"w":1021,"h":99},
	"sourceSize": {"w":1021,"h":100},
	"pivot": {"x":0.5,"y":0.5}
},
{
	"filename": "logo.png",
	"frame": {"x":1,"y":238,"w":554,"h":322},
	"rotated": false,
	"trimmed": false,
	"spriteSourceSize": {"x":0,"y":0,"w":554,"h":322},
	"sourceSize": {"w":554,"h":322},
	"pivot": {"x":0.5,"y":0.5}
},
{
	"filename": "player-bar/bar.png",
	"frame": {"x":557,"y":238,"w":241,"h":60},
	"rotated": false,
	"trimmed": false,
	"spriteSourceSize": {"x":0,"y":0,"w":241,"h":60},
	"sourceSize": {"w":241,"h":60},
	"pivot": {"x":0.5,"y":0.5}
}],
"meta": {
	"app": "http://www.codeandweb.com/texturepacker",
	"version": "1.0",
	"image": "Lobby.png",
	"format": "RGBA8888",
	"size": {"w":1023,"h":561},
	"scale": "1",
	"smartupdate": "$TexturePacker:SmartUpdate:ded4e64627c396a990d7f70391e9d242:8ad2d9daacd275dade4753022ecd6938:ce8d4b4164663619369ed2923a05ca30$"
}
}
